Nicholas Giangreco - What Baby Names are In and Out of Fashion?
…
Now we combine the predicted baby name counts to the original data:

(data_pred <- 
        bind_cols(tmp,
                  as.data.frame(predict(fit,
                                        new_data = tmp,
                                        se.fit = TRUE))) %>% 
        tibble())

# A tibble: 87,899 × 7
    year first_name county      sex    name_count   fit se.fit
   <int> <fct>      <fct>       <fct>       <int> <dbl>  <dbl>
 1  2007 Zoey       Kings       Female         11  3.58 0.0206
 2  2007 Zoey       Suffolk     Female          6  3.09 0.0207
 3  2007 Zoey       Monroe      Female          6  2.39 0.0210
 4  2007 Zoey       Erie        Female          9  2.59 0.0209
 5  2007 Zoe        Ulster      Female          5  1.68 0.0200
 6  2007 Zoe        Westchester Female         24  3.15 0.0155
 7  2007 Zoe        Bronx       Female         13  3.69 0.0153
 8  2007 Zoe        New York    Female         55  3.61 0.0153
 9  2007 Zoe        Nassau      Female         15  3.45 0.0153
10  2007 Zoe        Erie        Female          6  3.09 0.0155
# ℹ 87,889 more rows
…
Looks like I need to add a variable for the name attributing how many years worth of count data it has as well as if it was a name in 2019 or 2020.

(pred_baby_names <- 
    pred_baby_names %>% 
    left_join(
        data_pred %>% 
        summarise(n_years = n_distinct(year),prop_years = n_years/14,
                  recent = any(year %in% c(2019,2020)),.by=first_name),
        by = "first_name"
    ))

# A tibble: 16,166 × 6
   first_name  year avg_pred n_years prop_years recent
   <fct>      <int>    <dbl>   <int>      <dbl> <lgl> 
 1 Zoey        2007     2.91      14      1     TRUE  
 2 Zoe         2007     3.21      14      1     TRUE  
 3 Zissy       2007     2.50      14      1     TRUE  
 4 Zion        2007     3.02      14      1     TRUE  
 5 Zev         2007     3.00      14      1     TRUE  
 6 Zara        2007     2.79      14      1     TRUE  
 7 Zaire       2007     2.68      13      0.929 TRUE  
 8 Zackary     2007     1.87       2      0.143 FALSE 
 9 Zachary     2007     2.23      14      1     TRUE  
10 Yusuf       2007     2.26      13      0.929 TRUE  
# ℹ 16,156 more rows
…
